<?xml version="1.0"?>
<gpx version="1.1" creator="Xcode">
    
    <!--
     Provide one or more waypoints containing a latitude/longitude pair. If you provide one
     waypoint, Xcode will simulate that specific location. If you provide multiple waypoints,
     Xcode will simulate a route visiting each waypoint.
     -->
    <wpt lat="53.922766" lon="27.447173">
      <time>2021-05-12T17:24:00Z</time>
    </wpt>
    <wpt lat="53.92641314243536" lon="27.44486140275633">
      <time>2021-05-12T17:25:00Z</time>
    </wpt>
    
</gpx>
